-1.000000000000000000e+00 2.612289949810963074e-01 0.000000000000000000e+00 2.332663513683536083e-01 0.000000000000000000e+00
-9.000000000000000222e-01 2.602558397695071135e-01 1.049482838619230224e-01 2.613740441667276038e-01 1.449791605537124051e-01
-8.000000000000000444e-01 2.684634217880406126e-01 1.448477707999267505e-01 2.889739526791212931e-01 1.341555056678633839e-01
-6.999999999999999556e-01 2.732686520681913978e-01 1.674393385540080548e-01 2.938740590158993582e-01 1.218044756019099895e-01
-5.999999999999999778e-01 2.931355789852143623e-01 1.953669368424170438e-01 2.935862228979114752e-01 1.553917285652223756e-01
-5.000000000000000000e-01 2.979877053480740057e-01 2.043384000302053138e-01 3.108871329169010100e-01 2.009686040084610603e-01
-3.999999999999999112e-01 3.112403389949227606e-01 2.353582973470723649e-01 3.357927506515957505e-01 2.237562337981089944e-01
-2.999999999999999334e-01 3.391974055181994352e-01 2.701005476813548301e-01 3.488469462500760621e-01 2.428377260371749335e-01
-1.999999999999999556e-01 3.532364688418097032e-01 2.990816552349339075e-01 3.797703969952742620e-01 2.854640371328766024e-01
-9.999999999999997780e-02 3.717826003903788035e-01 3.437603950272707931e-01 3.882758237600152929e-01 3.042267802089699824e-01
0.000000000000000000e+00 3.545564122348932035e-01 3.583789714854389019e-01 3.807354395258400470e-01 3.370682713243453588e-01
1.000000000000000888e-01 3.279728386371432713e-01 3.685164081503718436e-01 3.710718099631179490e-01 3.603344958283616895e-01
2.000000000000001776e-01 2.877045698845371868e-01 3.555373736926330519e-01 3.287204993373349371e-01 3.358839348401803648e-01
3.000000000000000444e-01 2.572073066048802259e-01 3.394586204384997252e-01 2.982576564423631282e-01 3.216262625496840166e-01
4.000000000000001332e-01 2.394720585876807528e-01 3.199335907209321928e-01 2.650268839499458906e-01 2.969316187528021622e-01
5.000000000000000000e-01 1.972317532153217423e-01 2.969587307477817850e-01 2.323579647848312002e-01 2.822114368973445142e-01
6.000000000000000888e-01 1.918255659211903219e-01 2.974976142913618449e-01 2.235708875729785217e-01 2.748798877737931301e-01
7.000000000000001776e-01 1.698132810699401474e-01 2.736127558995847808e-01 2.062333266316508651e-01 2.517753960355493814e-01
8.000000000000000444e-01 1.537809298175828732e-01 2.667649559575935303e-01 1.948255266098421201e-01 2.394591884157716566e-01
9.000000000000001332e-01 1.151034794001304512e-01 2.576267275539043666e-01 1.350219571515086647e-01 2.253073763932607609e-01
1.000000000000000000e+00 0.000000000000000000e+00 2.329860831451900371e-01 0.000000000000000000e+00 2.074375530812996860e-01
